{
  "project_info": {
    "project_number": "898606789729",
    "firebase_url": "https://iscoreparent.firebaseio.com",
    "project_id": "iscoreparent",
    "storage_bucket": "iscoreparent.appspot.com"
  },
  "client": [
    {
      "client_info": {
        "mobilesdk_app_id": "1:898606789729:android:533c9fb5cf838fa5",
        "android_client_info": {
          "package_name": "com.parshvaa.parent"
        }
      },
      "oauth_client": [
        {
          "client_id": "898606789729-gmkj24v9mi8mmn0trh9uor7enlsuf4tb.apps.googleusercontent.com",
          "client_type": 1,
          "android_info": {
            "package_name": "com.parshvaa.parent",
            "certificate_hash": "f5ef453a941d2da9158643f47fe6e52a2fb43e02"
          }
        },
        {
          "client_id": "898606789729-abep70l26df10akcnr6otmphf970aqql.apps.googleusercontent.com",
          "client_type": 3
        }
      ],
      "api_key": [
        {
          "current_key": "AIzaSyBFFP73NqWz8qqDHbmWjXz_CsY3q0uXwQI"
        }
      ],
      "services": {
        "analytics_service": {
          "status": 1
        },
        "appinvite_service": {
          "status": 2,
          "other_platform_oauth_client": [
            {
              "client_id": "898606789729-abep70l26df10akcnr6otmphf970aqql.apps.googleusercontent.com",
              "client_type": 3
            }
          ]
        },
        "ads_service": {
          "status": 2
        }
      }
    }
  ],
  "configuration_version": "1"
}